[gd_scene load_steps=2 format=3 uid="uid://b7ejjl3grxd7o"]

[ext_resource type="Script" path="res://hud.gd" id="1_x7lqi"]

[node name="Hud" type="CanvasLayer"]
script = ExtResource("1_x7lqi")

[node name="Label" type="Label" parent="."]
visible = false
offset_left = 674.0
offset_top = 284.0
offset_right = 1361.0
offset_bottom = 397.0
theme_override_colors/font_color = Color(0.47451, 0, 0.0156863, 1)
theme_override_font_sizes/font_size = 80
text = "Press R to restart."
horizontal_alignment = 1
vertical_alignment = 1

[node name="GUI" type="MarginContainer" parent="."]
offset_left = 59.0
offset_top = 60.0
offset_right = 659.0
offset_bottom = 160.0

[node name="sections" type="HBoxContainer" parent="GUI"]
layout_mode = 2

[node name="Points" type="Label" parent="."]
offset_left = 1633.0
offset_top = -2.0
offset_right = 1673.0
offset_bottom = 21.0
scale = Vector2(5.29778, 5.24974)
